…
``` r
## do any proteins show up more than once?
icounts <- negProts |>
    dplyr::group_by(PrimaryGeneName) |>
    dplyr::summarize(numImgs = dplyr::n()) |>
    dplyr::arrange(desc(numImgs))


print(icounts)
```

    ## # A tibble: 267 × 2
    ##    PrimaryGeneName numImgs
    ##    <chr>             <int>
    ##  1 CHGA                  2
    ##  2 DCAKD                 2
    ##  3 ECHS1                 2
    ##  4 PFKL                  2
    ##  5 PKM                   2
    ##  6 PSMD4                 2
    ##  7 SH3GL1                2
    ##  8 VAMP2                 2
    ##  9 AAK1                  1
    ## 10 ABCB7                 1
    ## # ℹ 257 more rows
…
