spammR microbiome evaluation • spammR
…
sig_ko <- subset(rowData(diff_ex), Desert_vs_NonDesert.adj.P.Val.limma < 0.05)
ups <- subset(sig_ko, Desert_vs_NonDesert.logFC.limma > 0)
downs <- subset(sig_ko, Desert_vs_NonDesert.logFC.limma < 0)

print(paste(
  "We found", nrow(sig_ko), "significantly differentally abundant KOs",
  nrow(ups), "upregulated KOs and", nrow(downs), "downregulated"
))

## [1] "We found 575 significantly differentally abundant KOs 483 upregulated KOs and 92 downregulated"

ups %>% as_tibble(.) %>%
  arrange(., -Desert_vs_NonDesert.logFC.limma)

## # A tibble: 483 × 8
##    KO     annotation Desert_vs_NonDesert.logFC.limma Desert_vs_NonDesert.AveEx…¹
##    <chr>  <chr>                                <dbl>                       <dbl>
##  1 K21136 11079                                 4.30                        5.91
##  2 K15547 8600                                  4.15                        4.98
##  3 K09758 5602                                  4.07                        5.42
##  4 K01535 1144                                  4.04                        5.02
##  5 K15549 8602                                  4.04                        5.18
##  6 K07085 4377                                  3.87                        7.23
##  7 K12137 6892                                  3.87                        6.94
##  8 K13926 7769                                  3.71                        5.59
##  9 K05817 3685                                  3.64                        5.74
## 10 K21134 11077                                 3.56                        7.72
## # ℹ 473 more rows
## # ℹ abbreviated name: ¹​Desert_vs_NonDesert.AveExpr.limma
## # ℹ 4 more variables: Desert_vs_NonDesert.t.limma <dbl>,
## #   Desert_vs_NonDesert.P.Value.limma <dbl>,
## #   Desert_vs_NonDesert.adj.P.Val.limma <dbl>,
## #   Desert_vs_NonDesert.B.limma <dbl>
…
